<svg xmlns="http://www.w3.org/2000/svg" width="41.65" height="37.646" viewBox="0 0 41.65 37.646">
  <g id="calendar" transform="translate(0.325 -24.675)">
    <path id="Path_31609" data-name="Path 31609" d="M40.279,48.258V31.166a3.608,3.608,0,0,0-3.6-3.6H31.951V26.2a1.2,1.2,0,0,0-2.4,0v1.361H21.7V26.2a1.2,1.2,0,0,0-2.4,0v1.361H11.451V26.2a1.2,1.2,0,0,0-2.4,0v1.361H3.6a3.608,3.608,0,0,0-3.6,3.6v22.1a3.608,3.608,0,0,0,3.6,3.6H22.256a10.008,10.008,0,0,0,18.023-8.613Zm-8.088-3.784A7.626,7.626,0,0,1,38.5,50.785H32.191ZM3.6,54.469a1.2,1.2,0,0,1-1.2-1.2v-22.1a1.2,1.2,0,0,1,1.2-1.2H9.049v1.441a1.2,1.2,0,0,0,2.4,0V29.965H19.3v1.441a1.2,1.2,0,0,0,2.4,0V29.965h7.848v1.441a1.2,1.2,0,0,0,2.4,0V29.965h4.725a1.2,1.2,0,0,1,1.2,1.2V44.729a10.009,10.009,0,0,0-16.585,9.74ZM30.99,59.594a7.608,7.608,0,0,1-1.2-15.12v7.512a1.2,1.2,0,0,0,1.2,1.2H38.5A7.619,7.619,0,0,1,30.99,59.594Z" transform="translate(0 0)" fill="#8892a5" stroke="#fff" stroke-width="0.65"/>
    <path id="Path_31610" data-name="Path 31610" d="M68.123,185H66.2a1.2,1.2,0,1,0,0,2.4h1.922a1.2,1.2,0,1,0,0-2.4Z" transform="translate(-59.795 -147.188)" fill="#8892a5" stroke="#fff" stroke-width="0.65"/>
    <path id="Path_31611" data-name="Path 31611" d="M156.123,185H154.2a1.2,1.2,0,1,0,0,2.4h1.922a1.2,1.2,0,1,0,0-2.4Z" transform="translate(-140.748 -147.188)" fill="#8892a5" stroke="#fff" stroke-width="0.65"/>
    <path id="Path_31612" data-name="Path 31612" d="M156.123,249H154.2a1.2,1.2,0,1,0,0,2.4h1.922a1.2,1.2,0,1,0,0-2.4Z" transform="translate(-140.748 -206.062)" fill="#8892a5" stroke="#fff" stroke-width="0.65"/>
    <path id="Path_31613" data-name="Path 31613" d="M68.123,249H66.2a1.2,1.2,0,0,0,0,2.4h1.922a1.2,1.2,0,1,0,0-2.4Z" transform="translate(-59.795 -206.062)" fill="#8892a5" stroke="#fff" stroke-width="0.65"/>
    <path id="Path_31614" data-name="Path 31614" d="M68.123,313H66.2a1.2,1.2,0,1,0,0,2.4h1.922a1.2,1.2,0,1,0,0-2.4Z" transform="translate(-59.795 -264.938)" fill="#8892a5" stroke="#fff" stroke-width="0.65"/>
    <path id="Path_31615" data-name="Path 31615" d="M156.123,313H154.2a1.2,1.2,0,1,0,0,2.4h1.922a1.2,1.2,0,1,0,0-2.4Z" transform="translate(-140.748 -264.938)" fill="#8892a5" stroke="#fff" stroke-width="0.65"/>
  </g>
</svg>
