<svg xmlns="http://www.w3.org/2000/svg" width="31.165" height="48.014" viewBox="0 0 31.165 48.014">
  <g id="Smart_Farm" data-name="Smart Farm" transform="translate(-12.237)">
    <g id="Outline" transform="translate(12.237)">
      <path id="Path_31621" data-name="Path 31621" d="M49.833,133.511H40.8v-12h2.251a2.253,2.253,0,0,0,2.251-2.251V98.251A2.253,2.253,0,0,0,43.051,96h-9A2.253,2.253,0,0,0,31.8,98.251v21.006a2.253,2.253,0,0,0,2.251,2.251H36.3v12H27.136a.727.727,0,0,0-.75.75.75.75,0,0,0,.75.75h22.7a.75.75,0,0,0,0-1.5ZM33.3,100.5H38.55a.75.75,0,1,0,0-1.5H33.3v-.75a.751.751,0,0,1,.75-.75h9a.751.751,0,0,1,.75.75v18.756H33.3Zm.75,19.506a.751.751,0,0,1-.75-.75v-.75H43.8v.75a.751.751,0,0,1-.75.75Zm5.252,13.5H37.8v-12h1.5Z" transform="translate(-26.386 -86.997)" fill="#8892a5"/>
      <ellipse id="Ellipse_728" data-name="Ellipse 728" cx="1.011" cy="0.505" rx="1.011" ry="0.505" transform="translate(14.037 12.091)" fill="#8892a5"/>
      <path id="Path_31622" data-name="Path 31622" d="M384.75,1.5a9.764,9.764,0,0,1,9.753,9.753.75.75,0,0,0,1.5,0A11.266,11.266,0,0,0,384.75,0a.75.75,0,0,0,0,1.5Z" transform="translate(-364.839)" fill="#8892a5"/>
      <path id="Path_31623" data-name="Path 31623" d="M384.75,32a.75.75,0,0,0,0,1.5,6.76,6.76,0,0,1,6.752,6.752.75.75,0,1,0,1.5,0A8.262,8.262,0,0,0,384.75,32Z" transform="translate(-364.839 -28.999)" fill="#8892a5"/>
      <path id="Path_31624" data-name="Path 31624" d="M388.5,69.252a.75.75,0,1,0,1.5,0A5.257,5.257,0,0,0,384.75,64a.75.75,0,0,0,0,1.5A3.755,3.755,0,0,1,388.5,69.252Z" transform="translate(-364.839 -57.998)" fill="#8892a5"/>
      <path id="Path_31625" data-name="Path 31625" d="M306.251,288h-1.5a.75.75,0,1,0,0,1.5h1.5a.75.75,0,1,0,0-1.5Z" transform="translate(-295.587 -260.992)" fill="#8892a5"/>
      <path id="Path_31626" data-name="Path 31626" d="M306.251,256h-1.5a.75.75,0,1,0,0,1.5h1.5a.75.75,0,1,0,0-1.5Z" transform="translate(-295.587 -231.993)" fill="#8892a5"/>
      <path id="Path_31627" data-name="Path 31627" d="M306.251,224h-1.5a.75.75,0,1,0,0,1.5h1.5a.75.75,0,1,0,0-1.5Z" transform="translate(-295.587 -202.994)" fill="#8892a5"/>
      <path id="Path_31628" data-name="Path 31628" d="M306.251,192h-1.5a.75.75,0,1,0,0,1.5h1.5a.75.75,0,1,0,0-1.5Z" transform="translate(-295.587 -173.995)" fill="#8892a5"/>
      <path id="Path_31629" data-name="Path 31629" d="M306.251,160h-1.5a.75.75,0,1,0,0,1.5h1.5a.75.75,0,1,0,0-1.5Z" transform="translate(-295.587 -144.996)" fill="#8892a5"/>
      <path id="Path_31630" data-name="Path 31630" d="M354.251,192h-1.5a.75.75,0,1,0,0,1.5h1.5a.75.75,0,1,0,0-1.5Z" transform="translate(-339.085 -173.995)" fill="#8892a5"/>
      <path id="Path_31631" data-name="Path 31631" d="M354.251,160h-1.5a.75.75,0,0,0,0,1.5h1.5a.75.75,0,1,0,0-1.5Z" transform="translate(-339.085 -144.996)" fill="#8892a5"/>
      <path id="Path_31632" data-name="Path 31632" d="M354.251,288h-1.5a.75.75,0,0,0,0,1.5h1.5a.75.75,0,1,0,0-1.5Z" transform="translate(-339.085 -260.992)" fill="#8892a5"/>
      <path id="Path_31633" data-name="Path 31633" d="M354.251,256h-1.5a.75.75,0,0,0,0,1.5h1.5a.75.75,0,1,0,0-1.5Z" transform="translate(-339.085 -231.993)" fill="#8892a5"/>
      <path id="Path_31634" data-name="Path 31634" d="M354.251,224h-1.5a.75.75,0,0,0,0,1.5h1.5a.75.75,0,1,0,0-1.5Z" transform="translate(-339.085 -202.994)" fill="#8892a5"/>
    </g>
  </g>
</svg>
