<svg xmlns="http://www.w3.org/2000/svg" width="27" height="27" viewBox="0 0 27 27">
  <g id="Group_3295" data-name="Group 3295" transform="translate(-136 -835)">
    <g id="Group_3281" data-name="Group 3281" transform="translate(-207 684)">
      <g id="Group_484" data-name="Group 484" transform="translate(343 151)">
        <g id="Group_476" data-name="Group 476">
          <circle id="Ellipse_92" data-name="Ellipse 92" cx="13.5" cy="13.5" r="13.5" fill="rgba(52,37,22,0.08)"/>
        </g>
      </g>
    </g>
    <g id="users" transform="translate(114.035 842)">
      <g id="Group_2435" data-name="Group 2435" transform="translate(29.965 0)">
        <path id="Path_30898" data-name="Path 30898" d="M462.547,407.126a.245.245,0,1,0-.147.274A.247.247,0,0,0,462.547,407.126Z" transform="translate(-451.466 -396.95)" fill="#342516" stroke="#342516" stroke-width="0.25"/>
        <path id="Path_30899" data-name="Path 30899" d="M40.618,11.123a.245.245,0,0,0-.338.077,1.841,1.841,0,1,1-.012-1.972l.009.014a.245.245,0,1,0,.414-.263l-.011-.016A2.325,2.325,0,0,0,38.956,7.9a1.408,1.408,0,0,0-1.4-1.262h-.2a2.479,2.479,0,0,0-1.85-4.44,2.48,2.48,0,1,0-3.944,2.265h-.2a1.407,1.407,0,0,0-1.406,1.405V8.385a.245.245,0,0,0,.245.245H32.8v1.93a.245.245,0,0,0,.245.245h3.412a2.334,2.334,0,0,0,4.237.656.245.245,0,0,0-.077-.338Zm-2.746-6.47a1.99,1.99,0,1,1-1.99-1.988A1.991,1.991,0,0,1,37.872,4.654ZM31.056,2.479a1.99,1.99,0,0,1,3.974-.153,2.485,2.485,0,0,0-1.619,2.108,1.992,1.992,0,0,1-2.355-1.955ZM32.8,8.048V8.14H30.455V5.873a.916.916,0,0,1,.916-.915H33.42A2.48,2.48,0,0,0,34.4,6.642h-.2A1.407,1.407,0,0,0,32.8,8.048Zm.49,2.267V8.048a.916.916,0,0,1,.916-.915h3.35a.917.917,0,0,1,.9.773,2.335,2.335,0,0,0-2.077,2.318q0,.046,0,.091Z" transform="translate(-29.965 0)" fill="#342516" stroke="#342516" stroke-width="0.25"/>
        <path id="Path_30900" data-name="Path 30900" d="M354.232,385.065a.245.245,0,0,0,.245-.245v-.331h.331a.245.245,0,1,0,0-.49h-.331v-.331a.245.245,0,0,0-.49,0V384h-.331a.245.245,0,0,0,0,.49h.331v.331A.245.245,0,0,0,354.232,385.065Z" transform="translate(-345.479 -374.02)" fill="#342516" stroke="#342516" stroke-width="0.25"/>
      </g>
    </g>
  </g>
</svg>
